<?xml version="1.0" standalone="no"?>
<!DOCTYPE svg PUBLIC "-//W3C//DTD SVG 20010904//EN"
 "http://www.w3.org/TR/2001/REC-SVG-20010904/DTD/svg10.dtd">
<svg version="1.0" xmlns="http://www.w3.org/2000/svg"
 width="700.000000pt" height="700.000000pt" viewBox="0 0 700.000000 700.000000"
 preserveAspectRatio="xMidYMid meet">
<metadata>
Created by potrace 1.11, written by Peter Selinger 2001-2013
</metadata>
<g transform="translate(0.000000,700.000000) scale(0.100000,-0.100000)"
fill="#000000" stroke="none">
<path d="M3815 6891 c-76 -35 -117 -105 -117 -200 0 -53 2 -71 17 -151 3 -19
8 -51 11 -70 2 -19 11 -71 19 -115 18 -97 26 -143 30 -170 1 -11 13 -76 25
-145 12 -69 24 -136 26 -150 3 -14 6 -34 8 -45 2 -11 7 -36 10 -55 4 -19 8
-46 11 -60 3 -14 7 -38 10 -55 3 -16 7 -41 10 -55 3 -14 9 -50 15 -80 12 -74
26 -148 45 -250 9 -47 18 -96 20 -110 29 -165 44 -227 42 -168 0 21 3 71 18
263 3 33 7 94 10 135 3 41 7 107 10 145 3 39 7 99 10 135 2 36 7 103 10 150 4
47 8 112 10 145 3 33 7 105 11 160 4 55 8 123 9 150 23 425 22 403 12 440 -5
17 -9 35 -10 41 -1 24 -54 89 -86 108 -46 27 -135 30 -186 7z"/>
<path d="M4997 6770 c-64 -19 -115 -77 -139 -154 -9 -32 -98 -380 -103 -406
-2 -8 -11 -44 -20 -80 -10 -36 -19 -74 -20 -85 -1 -11 -3 -20 -4 -20 -2 0 -5
-11 -7 -24 -2 -14 -11 -50 -19 -80 -8 -31 -17 -71 -20 -90 -3 -19 -8 -37 -10
-41 -2 -3 -6 -17 -9 -31 -6 -28 -16 -77 -21 -99 -2 -8 -4 -17 -5 -20 -1 -3 -2
-9 -1 -13 1 -4 -3 -16 -8 -25 -5 -9 -12 -33 -15 -52 -7 -44 -9 -52 -40 -185
-27 -111 -36 -151 -37 -160 0 -2 -7 -27 -14 -55 -7 -27 -12 -50 -10 -50 2 0
20 33 40 73 21 39 61 117 90 172 340 648 581 1125 596 1180 17 60 12 118 -12
159 -38 66 -141 107 -212 86z"/>
<path d="M4398 6430 c-70 -12 -129 -66 -152 -140 -20 -62 -29 -157 -51 -560
-2 -41 -7 -115 -10 -165 -3 -49 -7 -133 -10 -185 -3 -52 -7 -140 -10 -195 -3
-55 -8 -138 -10 -185 -13 -287 -16 -351 -20 -400 -7 -78 4 -53 70 160 31 102
59 192 62 200 3 8 7 20 9 25 1 6 21 69 43 140 23 72 44 139 46 150 3 12 13 45
23 75 11 30 20 57 20 60 0 3 3 12 5 20 3 8 28 92 56 185 28 94 63 208 78 255
101 326 108 406 47 488 -41 54 -124 84 -196 72z"/>
<path d="M2426 6415 c-72 -25 -108 -77 -102 -148 3 -24 10 -55 18 -68 17 -30
195 -281 270 -382 32 -43 58 -82 58 -86 0 -5 4 -11 8 -13 4 -1 64 -79 132
-173 69 -93 130 -177 137 -185 7 -8 38 -50 69 -93 31 -43 58 -77 60 -75 3 3
-105 277 -137 348 -19 41 -26 58 -94 229 -36 90 -72 179 -80 198 -27 61 -43
97 -78 183 -77 188 -96 220 -147 253 -36 23 -70 27 -114 12z"/>
<path d="M1907 6236 c-98 -36 -170 -117 -182 -206 -18 -133 33 -205 374 -520
57 -52 124 -115 150 -140 26 -25 89 -83 140 -130 51 -47 110 -101 130 -120 21
-19 84 -78 141 -130 57 -52 129 -118 159 -146 31 -28 70 -64 86 -79 56 -50
208 -190 235 -215 15 -14 69 -63 120 -110 52 -47 102 -93 112 -102 28 -28 22
-13 -22 51 -22 32 -40 61 -40 65 0 4 -9 16 -20 28 -10 11 -26 35 -34 52 -8 17
-22 40 -31 51 -8 11 -28 40 -44 65 -16 25 -100 153 -186 285 -87 132 -212 323
-279 425 -66 102 -124 187 -128 188 -5 2 -8 8 -8 12 0 10 -238 366 -331 496
-95 132 -159 179 -259 189 -25 3 -62 -2 -83 -9z"/>
<path d="M3463 6164 c-65 -43 -84 -111 -55 -204 7 -25 15 -53 18 -62 2 -10 6
-26 8 -35 3 -10 14 -47 26 -83 12 -36 23 -72 25 -80 3 -14 44 -143 87 -275 11
-33 21 -67 23 -75 2 -8 11 -37 20 -65 10 -27 18 -54 19 -60 1 -5 31 -98 65
-205 61 -189 84 -244 76 -184 -4 27 -10 128 -20 314 -6 122 -14 259 -21 345
-5 79 -9 132 -19 295 -4 81 -8 122 -21 235 -7 56 -44 129 -75 146 -12 6 -42
13 -67 15 -39 4 -54 1 -89 -22z"/>
<path d="M5291 6144 c-70 -29 -107 -87 -266 -409 -84 -170 -171 -348 -193
-395 -56 -120 -128 -271 -211 -443 -39 -82 -71 -151 -71 -153 0 -2 -21 -45
-46 -96 -45 -91 -70 -147 -61 -138 3 3 21 25 42 50 20 25 54 65 75 90 21 25
100 119 175 210 76 91 154 185 175 210 117 140 209 252 240 290 19 24 58 71
86 104 27 34 86 106 130 161 43 55 85 106 92 114 27 28 94 133 98 154 14 59
14 79 4 117 -29 108 -167 177 -269 134z"/>
<path d="M6045 6102 c-76 -17 -141 -73 -260 -222 -33 -41 -67 -82 -76 -91 -9
-9 -21 -23 -25 -32 -5 -8 -25 -34 -45 -58 -21 -24 -87 -107 -148 -184 -60 -77
-114 -144 -118 -150 -14 -17 -167 -210 -195 -246 -15 -19 -106 -135 -203 -259
-97 -124 -183 -234 -192 -245 -9 -11 -25 -30 -36 -42 -35 -39 -10 -37 40 3 26
22 52 42 58 46 5 4 26 20 45 36 19 15 71 55 115 88 44 33 103 78 131 100 28
21 98 75 155 118 57 44 106 83 107 88 2 4 10 8 17 8 7 0 15 3 17 8 2 4 26 25
55 47 28 22 66 51 84 65 71 55 195 151 209 163 8 7 33 26 55 42 22 17 49 37
60 46 11 9 79 63 150 119 174 138 213 176 241 235 26 54 31 125 14 171 -38 98
-159 168 -255 146z"/>
<path d="M1360 5792 c-103 -51 -150 -174 -102 -267 36 -71 67 -94 467 -351 94
-60 172 -112 173 -116 2 -5 8 -8 12 -8 5 0 48 -25 95 -55 46 -30 89 -55 94
-55 5 0 11 -4 13 -8 3 -8 595 -382 604 -382 3 0 12 -7 20 -15 31 -31 32 -14 1
19 -17 18 -93 97 -167 176 -74 79 -155 164 -180 190 -25 26 -115 120 -200 210
-459 483 -588 612 -648 647 -55 33 -134 39 -182 15z"/>
<path d="M799 5486 c-79 -28 -143 -123 -143 -211 1 -122 79 -195 284 -264 36
-12 74 -26 85 -31 11 -5 43 -16 70 -26 28 -9 113 -38 190 -64 443 -153 792
-272 805 -276 38 -10 477 -161 490 -168 8 -4 2 4 -15 18 -16 14 -45 33 -62 41
-18 9 -33 20 -33 25 0 6 -4 10 -9 10 -8 0 -101 57 -126 77 -5 5 -66 44 -135
88 -69 44 -129 83 -135 88 -5 4 -44 29 -85 54 -41 26 -76 51 -78 55 -2 4 -8 8
-13 8 -11 0 -153 92 -157 103 -2 4 -8 7 -14 7 -6 0 -31 15 -57 33 -25 17 -58
38 -73 46 -16 8 -28 18 -28 23 0 4 -4 8 -9 8 -9 0 -111 59 -121 70 -3 3 -66
44 -140 90 -74 46 -142 89 -150 96 -8 6 -54 33 -102 59 -97 52 -172 64 -239
41z"/>
<path d="M6041 5218 c-77 -38 -88 -45 -326 -203 -115 -77 -214 -142 -220 -145
-27 -14 -170 -115 -173 -122 -2 -4 -8 -8 -13 -8 -11 0 -497 -325 -519 -348 -8
-8 -10 -13 -5 -10 54 26 89 40 103 43 20 4 327 112 357 125 11 5 49 19 85 31
36 12 151 53 255 91 105 38 195 71 200 72 6 2 23 8 38 14 16 7 34 12 41 12 7
0 21 7 32 15 10 8 26 15 34 15 29 0 256 94 299 123 76 52 101 148 58 227 -51
93 -144 119 -246 68z"/>
<path d="M1382 4700 c-43 -10 -101 -57 -123 -101 -22 -42 -29 -113 -15 -157
12 -40 77 -112 100 -112 9 0 16 -4 16 -10 0 -5 10 -10 23 -10 13 0 27 -4 32
-8 6 -5 35 -14 65 -21 30 -7 84 -21 120 -32 36 -10 76 -20 90 -23 14 -2 25 -5
25 -6 0 -1 11 -3 25 -5 25 -3 162 -36 230 -55 30 -9 135 -33 193 -45 10 -2 26
-6 35 -9 9 -3 28 -7 42 -10 14 -2 45 -9 70 -16 25 -7 56 -14 70 -17 14 -2 43
-9 65 -15 22 -5 49 -12 60 -14 35 -7 59 -13 93 -23 18 -5 35 -10 37 -10 5 1
33 -5 85 -17 65 -15 117 -26 143 -30 16 -3 46 -12 68 -19 21 -8 39 -12 39 -10
0 3 11 0 25 -5 14 -5 25 -6 25 -1 0 5 -42 31 -92 57 -51 25 -124 64 -163 84
-38 21 -122 64 -185 96 -63 32 -116 62 -118 66 -2 5 -11 8 -21 8 -9 0 -21 4
-26 9 -26 23 -842 433 -895 450 -50 15 -100 19 -138 11z"/>
<path d="M669 4379 c-132 -64 -145 -247 -24 -331 47 -33 94 -43 290 -63 33 -4
78 -9 100 -11 22 -2 60 -6 85 -8 25 -2 81 -7 125 -11 85 -8 94 -9 225 -20 47
-4 101 -9 120 -11 19 -2 64 -6 100 -9 36 -3 88 -7 115 -10 28 -2 84 -7 125
-10 41 -3 91 -8 110 -10 38 -4 204 -16 260 -19 20 -1 41 -5 47 -9 7 -4 14 -4
17 1 3 5 -54 28 -127 52 -73 24 -139 47 -147 52 -15 7 -80 30 -365 128 -216
74 -285 97 -303 101 -4 1 -23 9 -41 17 -19 7 -42 15 -50 17 -9 2 -83 27 -166
55 -348 120 -422 135 -496 99z"/>
<path d="M846 3823 c-93 -21 -144 -65 -172 -147 -19 -56 -15 -136 10 -184 56
-109 163 -143 371 -117 33 4 76 9 95 11 19 2 53 6 75 8 22 3 67 8 100 11 33 3
72 8 86 11 15 3 48 7 75 9 49 4 112 11 163 19 24 4 112 15 171 21 14 1 46 5
73 9 26 3 68 9 95 12 26 3 58 7 72 9 14 2 52 7 85 10 33 4 67 8 75 10 8 2 40
7 70 10 72 8 110 13 200 26 41 6 93 12 116 14 22 2 54 6 70 9 33 6 128 18 161
20 29 2 42 16 17 17 -56 4 -92 8 -119 13 -16 3 -55 7 -85 10 -30 3 -66 8 -80
10 -14 2 -50 7 -80 10 -30 4 -68 9 -85 11 -16 3 -50 7 -75 10 -25 2 -56 7 -70
9 -14 3 -52 7 -85 10 -33 3 -71 8 -85 10 -14 3 -52 8 -85 11 -33 4 -71 8 -85
10 -14 1 -54 6 -90 9 -36 4 -72 9 -80 11 -8 2 -44 7 -80 10 -36 4 -76 8 -90
10 -14 2 -50 6 -80 10 -30 3 -71 8 -90 10 -19 3 -57 7 -85 10 -27 3 -70 7 -95
10 -25 3 -67 7 -95 10 -27 2 -75 7 -105 10 -109 11 -128 11 -184 -2z"/>
<path d="M2595 3381 c-2 -1 -19 -4 -37 -6 -18 -2 -64 -6 -103 -10 -38 -3 -86
-8 -105 -10 -19 -2 -69 -6 -110 -9 -41 -4 -91 -9 -110 -11 -19 -3 -62 -7 -95
-10 -33 -3 -78 -7 -100 -9 -134 -13 -175 -17 -220 -22 -27 -3 -66 -7 -85 -9
-19 -2 -55 -6 -80 -9 -25 -2 -76 -8 -115 -11 -38 -3 -81 -8 -95 -11 -14 -2
-54 -6 -89 -9 -36 -3 -97 -10 -135 -16 -39 -6 -78 -12 -86 -13 -35 -4 -97 -31
-125 -54 -118 -97 -77 -301 70 -342 57 -16 109 -9 232 32 54 17 103 33 108 34
6 1 55 19 110 39 55 20 105 38 110 39 6 2 17 6 25 9 8 3 69 24 135 47 66 23
143 50 170 60 28 11 133 49 235 85 173 61 349 125 500 181 36 13 71 24 78 24
6 0 12 4 12 8 0 8 -88 11 -95 3z"/>
<path d="M2670 3134 c-41 -13 -84 -26 -95 -28 -11 -2 -101 -27 -200 -56 -99
-29 -187 -54 -195 -55 -8 -2 -16 -4 -17 -5 -2 -2 -6 -3 -10 -4 -18 -3 -109
-28 -123 -33 -8 -4 -19 -7 -25 -8 -5 -2 -53 -15 -105 -30 -52 -15 -102 -29
-110 -31 -8 -2 -69 -19 -135 -39 -66 -19 -129 -37 -140 -40 -38 -9 -506 -147
-670 -198 -185 -58 -228 -79 -286 -140 -29 -30 -56 -82 -51 -99 1 -5 -1 -8 -6
-8 -4 0 -7 -15 -6 -34 7 -136 71 -232 178 -266 75 -24 153 -9 278 55 62 31
120 63 129 71 8 8 19 14 24 14 4 0 62 31 129 69 66 38 136 77 153 88 270 153
539 308 543 313 3 4 12 9 20 13 8 3 38 20 65 37 28 16 57 33 65 37 8 4 103 59
210 122 107 63 213 124 235 136 56 31 196 115 220 131 26 19 13 17 -75 -12z"/>
<path d="M2890 2929 c-36 -17 -101 -48 -145 -69 -92 -43 -233 -110 -420 -200
-71 -34 -164 -78 -205 -97 -41 -20 -214 -105 -385 -188 -289 -143 -385 -201
-385 -232 0 -7 -4 -13 -9 -13 -5 0 -13 -10 -17 -22 -42 -135 59 -280 192 -274
21 2 50 6 64 10 26 9 138 80 155 100 6 6 39 33 75 61 36 27 67 52 70 55 3 3
52 44 110 90 58 46 110 89 116 95 6 5 28 24 49 40 21 17 43 35 49 40 6 6 63
53 126 105 63 52 120 99 126 105 7 5 20 17 30 25 53 42 197 162 260 215 65 55
142 120 197 166 30 25 22 23 -53 -12z"/>
<path d="M3618 2619 c-1 -50 -4 -76 -11 -134 -3 -22 -9 -71 -13 -110 -4 -38
-8 -83 -10 -100 -2 -16 -6 -57 -9 -91 -3 -33 -7 -70 -10 -82 -2 -12 -7 -61
-10 -110 -4 -48 -8 -89 -10 -92 -2 -3 -6 -47 -10 -99 -4 -52 -8 -101 -10 -110
-2 -9 -6 -45 -9 -81 -15 -146 -17 -166 -21 -200 -2 -19 -7 -66 -10 -105 -3
-38 -8 -81 -10 -95 -2 -14 -6 -61 -10 -105 -3 -44 -8 -93 -10 -110 -2 -16 -7
-66 -11 -110 -3 -44 -7 -93 -9 -110 -23 -249 -24 -374 -3 -425 8 -19 16 -39
17 -45 4 -19 66 -77 106 -98 58 -31 184 -31 240 0 137 76 162 176 120 473 -3
19 -7 53 -10 75 -2 22 -9 72 -14 110 -6 39 -13 93 -16 120 -4 28 -8 57 -10 65
-3 8 -7 40 -10 71 -3 31 -8 67 -10 80 -3 13 -8 44 -11 69 -3 25 -8 56 -10 70
-3 14 -7 43 -10 65 -2 22 -6 51 -8 65 -2 14 -7 48 -11 75 -3 28 -8 57 -10 65
-3 8 -7 38 -10 66 -3 28 -8 61 -10 75 -3 13 -7 44 -11 69 -3 25 -9 70 -14 100
-5 30 -12 73 -15 95 -3 23 -8 52 -11 65 -2 14 -7 45 -9 70 -2 25 -6 54 -8 65
-3 11 -8 40 -11 65 -3 25 -8 56 -10 70 -3 14 -10 61 -16 105 -30 211 -39 246
-42 164z"/>
<path d="M3079 2557 c-53 -50 -170 -162 -259 -247 -89 -85 -219 -209 -288
-275 -361 -345 -590 -577 -612 -623 -55 -108 -14 -224 98 -278 70 -34 160 -15
223 48 38 39 156 215 378 568 88 140 164 260 169 265 4 6 11 17 15 25 3 8 27
47 51 85 48 75 118 187 222 355 104 167 106 170 102 170 -2 0 -46 -42 -99 -93z"/>
<path d="M4730 2634 c0 -2 21 -10 48 -18 26 -8 207 -69 402 -136 309 -106 503
-171 520 -175 3 -1 64 -20 135 -44 147 -48 184 -53 239 -34 61 21 90 64 99
148 3 31 -19 78 -49 104 -36 32 -82 48 -160 56 -27 2 -74 7 -104 10 -30 3 -77
8 -105 10 -27 3 -79 8 -115 10 -36 2 -87 7 -115 9 -80 9 -225 21 -365 31 -72
5 -142 11 -240 20 -88 9 -190 13 -190 9z"/>
<path d="M3990 2443 c0 -5 18 -55 39 -113 22 -58 96 -262 166 -455 187 -513
187 -513 265 -720 39 -104 73 -194 74 -200 2 -5 7 -19 11 -30 4 -11 24 -60 43
-110 52 -137 81 -191 124 -235 46 -48 76 -62 142 -65 70 -4 141 25 184 75 22
27 51 86 55 116 6 44 -16 126 -52 189 -30 53 -528 804 -540 815 -3 3 -57 82
-120 175 -63 94 -118 172 -123 173 -4 2 -8 8 -8 13 0 5 -26 46 -57 91 -109
157 -154 223 -175 256 -20 32 -28 39 -28 25z"/>
<path d="M4515 2400 c58 -62 981 -985 1046 -1047 31 -28 72 -62 92 -76 35 -23
109 -45 132 -38 15 5 39 9 50 10 20 2 83 67 103 107 26 51 23 119 -7 168 -39
63 -47 69 -454 318 -78 48 -158 97 -177 108 -19 11 -49 29 -65 39 -67 40 -692
414 -725 434 l-35 20 40 -43z"/>
<path d="M4815 2413 c14 -14 265 -163 275 -163 5 0 10 -4 12 -8 2 -4 35 -26
73 -48 39 -22 180 -106 315 -186 626 -371 724 -426 790 -443 123 -32 238 51
245 177 6 102 -54 172 -185 217 -86 30 -354 114 -505 158 -66 19 -127 37 -135
40 -8 3 -21 8 -27 10 -7 1 -19 5 -25 6 -7 2 -20 7 -28 10 -8 4 -26 8 -40 11
-14 2 -70 19 -125 36 -55 17 -107 33 -115 35 -20 6 -94 27 -220 65 -123 37
-239 70 -260 75 -8 2 -24 7 -35 11 -13 4 -17 4 -10 -3z"/>
<path d="M3198 2325 c-10 -13 -18 -28 -18 -34 0 -5 -4 -11 -8 -13 -5 -1 -51
-66 -102 -143 -52 -77 -96 -142 -99 -145 -4 -3 -10 -13 -16 -22 -5 -9 -148
-223 -317 -475 -344 -514 -384 -583 -387 -660 -3 -56 20 -113 61 -150 59 -54
166 -69 228 -32 70 43 96 83 156 246 20 54 41 109 47 123 6 14 11 30 12 35 2
6 12 34 24 62 27 68 222 605 225 618 1 6 4 15 7 20 4 6 17 42 29 80 12 39 25
75 29 80 3 6 6 15 7 20 2 11 49 140 113 313 39 103 41 122 9 77z"/>
<path d="M2537 2304 c-24 -13 -51 -30 -117 -74 -8 -6 -80 -52 -160 -102 -80
-51 -147 -95 -150 -98 -3 -3 -34 -24 -70 -45 -36 -22 -69 -43 -75 -47 -19 -15
-86 -58 -91 -58 -3 0 -10 -5 -17 -11 -24 -20 -439 -289 -447 -289 -5 0 -10 -4
-12 -8 -1 -5 -43 -36 -93 -70 -115 -77 -138 -98 -164 -149 -33 -62 -33 -105
-2 -166 36 -72 93 -111 163 -111 96 1 126 24 418 334 74 78 151 159 170 180
29 31 154 164 285 305 17 18 77 84 135 146 58 62 120 129 138 148 17 20 53 57
79 84 25 26 44 47 42 47 -2 -1 -16 -8 -32 -16z"/>
<path d="M3320 2144 c0 -8 -9 -36 -19 -62 -11 -26 -30 -76 -44 -112 -13 -36
-28 -74 -32 -85 -4 -11 -9 -24 -11 -30 -1 -5 -34 -95 -74 -200 -39 -104 -73
-197 -75 -205 -2 -8 -34 -94 -70 -190 -37 -96 -70 -188 -75 -203 -5 -16 -28
-79 -50 -140 -23 -62 -53 -143 -67 -182 -13 -38 -27 -77 -30 -85 -3 -8 -7 -19
-9 -25 -1 -5 -26 -77 -55 -160 -53 -154 -66 -235 -49 -296 45 -157 260 -216
376 -103 40 38 80 121 87 179 18 137 27 206 32 250 3 28 8 64 11 80 2 17 6 48
8 70 2 22 8 69 12 105 4 36 8 82 8 102 1 21 3 38 6 38 3 0 5 10 6 23 0 29 14
159 18 184 2 11 7 53 10 94 4 41 8 86 11 99 2 14 7 54 9 90 3 36 7 81 10 100
3 19 7 62 11 95 3 33 7 74 9 90 3 17 7 57 10 90 6 59 13 120 21 200 3 22 7 74
11 115 3 41 8 78 11 83 2 4 -1 7 -6 7 -6 0 -11 -7 -11 -16z"/>
<path d="M4519 2063 c10 -16 74 -116 141 -223 68 -107 132 -208 144 -225 12
-16 21 -32 21 -35 0 -3 30 -50 65 -104 152 -233 170 -263 186 -293 9 -18 20
-33 25 -33 5 0 9 -4 9 -9 0 -11 315 -499 343 -531 9 -11 17 -25 17 -30 0 -6
24 -34 54 -64 107 -106 224 -108 325 -6 66 66 77 160 30 252 -21 41 -201 225
-464 473 -81 77 -176 167 -211 200 -138 132 -338 320 -502 474 -57 53 -123
115 -148 139 -51 49 -63 53 -35 15z"/>
<path d="M3913 1923 c3 -5 8 -33 12 -63 3 -30 8 -62 10 -70 2 -8 6 -35 9 -60
3 -25 13 -94 21 -155 9 -60 18 -126 21 -145 2 -19 7 -46 9 -60 3 -14 7 -45 11
-70 3 -25 9 -70 14 -100 5 -30 12 -77 15 -105 3 -27 8 -57 10 -65 2 -8 7 -37
10 -65 4 -27 9 -59 10 -70 2 -11 6 -36 9 -55 2 -19 7 -48 10 -65 3 -16 7 -48
11 -70 3 -23 8 -52 10 -65 3 -14 8 -43 10 -65 5 -36 11 -74 31 -185 3 -19 7
-48 10 -65 6 -47 36 -135 45 -135 5 0 9 -5 9 -12 0 -20 62 -68 102 -79 94 -25
193 17 237 101 31 59 28 138 -9 225 -5 11 -27 67 -49 125 -22 58 -55 143 -74
190 -32 78 -48 117 -52 130 -2 6 -12 29 -50 120 -66 155 -105 255 -105 266 0
7 -4 14 -8 16 -4 2 -22 39 -39 83 -17 44 -71 172 -118 285 -48 113 -94 224
-103 248 -9 23 -20 42 -25 42 -4 0 -6 -3 -4 -7z"/>
</g>
</svg>
