{
    "key": "group_5f3e9a61c2354",
    "title": "CPT - CORE & Co",
    "fields": [
        {
            "key": "field_5f3e9a61cc6b3",
            "label": "Header",
            "name": "header",
            "type": "clone",
            "instructions": "",
            "required": 0,
            "conditional_logic": 0,
            "wrapper": {
                "width": "",
                "class": "",
                "id": ""
            },
            "clone": [
                "group_5ca392435f7ff"
            ],
            "display": "seamless",
            "layout": "block",
            "prefix_label": 0,
            "prefix_name": 0
        },
        {
            "key": "field_5f3e9a61cc6cd",
            "label": "Project detail",
            "name": "",
            "type": "tab",
            "instructions": "",
            "required": 0,
            "conditional_logic": 0,
            "wrapper": {
                "width": "",
                "class": "",
                "id": ""
            },
            "placement": "top",
            "endpoint": 0
        },
        {
            "key": "field_5f3e9a61cc6d6",
            "label": "Primary colour",
            "name": "primary_colour",
            "type": "color_picker",
            "instructions": "(Main school colour)",
            "required": 0,
            "conditional_logic": [
                [
                    {
                        "field": "field_5f3e9a61cc6de",
                        "operator": "!=empty"
                    },
                    {
                        "field": "field_5f3e9a61cc6de",
                        "operator": "==empty"
                    }
                ]
            ],
            "wrapper": {
                "width": "25",
                "class": "",
                "id": ""
            },
            "default_value": ""
        },
        {
            "key": "field_5f3e9a61cc6de",
            "label": "Secondary colour",
            "name": "secondary_colour",
            "type": "color_picker",
            "instructions": "(A fainter version of primary colour)",
            "required": 0,
            "conditional_logic": [
                [
                    {
                        "field": "field_5f3e9a61cc6d6",
                        "operator": "!=empty"
                    },
                    {
                        "field": "field_5f3e9a61cc6d6",
                        "operator": "==empty"
                    }
                ]
            ],
            "wrapper": {
                "width": "25",
                "class": "",
                "id": ""
            },
            "default_value": ""
        },
        {
            "key": "field_5f3e9a61cc6e6",
            "label": "Website URL",
            "name": "website_url",
            "type": "url",
            "instructions": "",
            "required": 0,
            "conditional_logic": 0,
            "wrapper": {
                "width": "25",
                "class": "",
                "id": ""
            },
            "default_value": "",
            "placeholder": ""
        },
        {
            "key": "field_5f3e9b3a4ecc1",
            "label": "Project partners",
            "name": "project_partners",
            "type": "repeater",
            "instructions": "",
            "required": 0,
            "conditional_logic": 0,
            "wrapper": {
                "width": "",
                "class": "",
                "id": ""
            },
            "collapsed": "",
            "min": 0,
            "max": 0,
            "layout": "table",
            "button_label": "Add partner type",
            "sub_fields": [
                {
                    "key": "field_5f6b1e6bbea23",
                    "label": "Partner type heading",
                    "name": "partner_type_heading",
                    "type": "text",
                    "instructions": "",
                    "required": 0,
                    "conditional_logic": 0,
                    "wrapper": {
                        "width": "",
                        "class": "",
                        "id": ""
                    },
                    "default_value": "",
                    "placeholder": "",
                    "prepend": "",
                    "append": "",
                    "maxlength": ""
                },
                {
                    "key": "field_5f6b1e16bea22",
                    "label": "Partner logos",
                    "name": "partner_logos",
                    "type": "repeater",
                    "instructions": "",
                    "required": 0,
                    "conditional_logic": 0,
                    "wrapper": {
                        "width": "",
                        "class": "",
                        "id": ""
                    },
                    "collapsed": "",
                    "min": 0,
                    "max": 0,
                    "layout": "table",
                    "button_label": "Add partners",
                    "sub_fields": [
                        {
                            "key": "field_5f3e9b499abe6",
                            "label": "Partner logo",
                            "name": "partner_logo",
                            "type": "image",
                            "instructions": "SVGs work best, put failing that a transparent background PNG.\r\nTry and make sure the logos are a similar size.",
                            "required": 0,
                            "conditional_logic": 0,
                            "wrapper": {
                                "width": "",
                                "class": "",
                                "id": ""
                            },
                            "return_format": "id",
                            "preview_size": "medium",
                            "library": "all",
                            "min_width": "",
                            "min_height": "",
                            "min_size": "",
                            "max_width": "",
                            "max_height": "",
                            "max_size": "",
                            "mime_types": ""
                        }
                    ]
                }
            ]
        },
        {
            "key": "field_5f3e9ad44ecc0",
            "label": "Project info",
            "name": "project_info",
            "type": "wysiwyg",
            "instructions": "",
            "required": 0,
            "conditional_logic": 0,
            "wrapper": {
                "width": "",
                "class": "",
                "id": ""
            },
            "default_value": "",
            "tabs": "all",
            "toolbar": "basic",
            "media_upload": 0,
            "delay": 0
        }
    ],
    "location": [
        [
            {
                "param": "post_type",
                "operator": "==",
                "value": "coreandco"
            }
        ]
    ],
    "menu_order": 0,
    "position": "normal",
    "style": "seamless",
    "label_placement": "top",
    "instruction_placement": "label",
    "hide_on_screen": [
        "the_content",
        "excerpt",
        "discussion",
        "comments",
        "revisions",
        "author",
        "format",
        "categories",
        "tags",
        "send-trackbacks"
    ],
    "active": true,
    "description": "",
    "modified": 1600856186
}